<?xml version="1.0" encoding="iso-8859-1"?>
<!-- Generator: Adobe Illustrator 16.0.0, SVG Export Plug-In . SVG Version: 6.00 Build 0)  -->
<!DOCTYPE svg PUBLIC "-//W3C//DTD SVG 1.1//EN" "http://www.w3.org/Graphics/SVG/1.1/DTD/svg11.dtd">
<svg xmlns="http://www.w3.org/2000/svg" xmlns:xlink="http://www.w3.org/1999/xlink" version="1.1" id="Capa_1" x="0px" y="0px" width="512px" height="512px" viewBox="0 0 964.199 964.199" style="enable-background:new 0 0 964.199 964.199;" xml:space="preserve">
<g>
	<path d="M768.1,226.1C768.1,101.3,666.899,0,542,0h-22.4v282.6h248.5V226.1z" fill="#141414"/>
	<path d="M196.1,738.1c0,124.801,101.2,226.1,226.1,226.1h119.9c124.8,0,226-101.299,226-226.1V357.6h-572V738.1z" fill="#141414"/>
	<path d="M422.199,0C297.3,0,196.1,101.3,196.1,226.1v56.5h248.5V0H422.199z" fill="#141414"/>
</g>
<g>
</g>
<g>
</g>
<g>
</g>
<g>
</g>
<g>
</g>
<g>
</g>
<g>
</g>
<g>
</g>
<g>
</g>
<g>
</g>
<g>
</g>
<g>
</g>
<g>
</g>
<g>
</g>
<g>
</g>
</svg>
